<svg width="18" height="20" viewBox="0 0 18 20" fill="none" xmlns="http://www.w3.org/2000/svg">
<path d="M11.038 13.1728C11.038 12.2607 11.038 11.3697 11.038 10.4611C11.0976 10.4259 11.1572 10.3836 11.2239 10.3449C12.3214 9.69691 13.0333 8.75663 13.2963 7.50996C13.5768 6.19638 13.2822 4.99197 12.4442 3.93899C11.7849 3.1114 10.9293 2.58315 9.89134 2.38241C8.57636 2.12885 7.38412 2.43876 6.33915 3.2734C5.56068 3.89673 5.04521 4.70319 4.83481 5.68574C4.55428 6.98171 4.83131 8.16146 5.61679 9.22501C5.95342 9.6793 6.37421 10.035 6.85812 10.3202C6.92826 10.3625 6.99839 10.4048 7.07553 10.4505C7.07553 11.3591 7.07553 12.2642 7.07553 13.1904C6.94579 13.2397 6.80903 13.289 6.67227 13.3383C5.66588 13.7046 4.78572 14.2716 4.06336 15.0639C3.31294 15.888 2.80449 16.8529 2.55552 17.9446C2.47136 18.3215 2.43629 18.7088 2.37668 19.0892C2.31005 19.5083 2.08212 19.8041 1.67886 19.9344C1.28963 20.0576 0.938969 19.959 0.658441 19.6562C0.511163 19.4942 0.416485 19.304 0.430511 19.0821C0.448044 18.7722 0.469084 18.4623 0.51467 18.1559C0.651427 17.2861 0.921436 16.4585 1.32119 15.6767C2.15226 14.0497 3.37957 12.8171 4.9891 11.9684C5.02066 11.9508 5.05222 11.9367 5.08027 11.9191C5.09079 11.912 5.09781 11.905 5.11534 11.8909C5.11534 11.7712 5.11534 11.6409 5.11534 11.5C5.00664 11.4014 4.89092 11.2957 4.77169 11.1936C4.24219 10.7288 3.82841 10.1723 3.49529 9.55252C3.11657 8.84115 2.87111 8.08751 2.79046 7.28457C2.66071 6.02029 2.88864 4.81588 3.48827 3.69599C4.39649 2.0056 5.80614 0.956141 7.65763 0.498324C8.30635 0.336328 8.9656 0.304633 9.62484 0.368023C10.9538 0.491281 12.1321 0.991357 13.149 1.86473C14.243 2.80501 14.9338 3.99182 15.2284 5.404C15.3511 5.98508 15.3792 6.57672 15.3231 7.17188C15.2284 8.17203 14.9198 9.09471 14.3833 9.9399C14.0397 10.4822 13.6189 10.9612 13.1279 11.3767C13.0894 11.412 13.0473 11.4437 13.0017 11.4859C13.0017 11.6197 13.0017 11.7571 13.0017 11.8909C13.2752 12.0529 13.5452 12.2079 13.8082 12.3699C14.208 12.6164 14.5727 12.9051 14.9233 13.2221C15.5966 13.8313 16.1577 14.5322 16.603 15.328C17.0659 16.1521 17.3815 17.0325 17.5568 17.9587C17.6164 18.2792 17.655 18.6067 17.69 18.9342C17.7426 19.4061 17.4446 19.8252 16.9817 19.9555C16.5258 20.0858 16.0419 19.8534 15.828 19.4132C15.7228 19.2019 15.7228 18.9694 15.6948 18.7441C15.5159 17.3706 15.011 16.1451 14.0852 15.1027C13.3033 14.2258 12.3495 13.6165 11.2379 13.2538C11.1783 13.2256 11.1116 13.201 11.038 13.1728Z" fill="#262626"/>
</svg>
