<svg width="15" height="16" viewBox="0 0 15 16" fill="none" xmlns="http://www.w3.org/2000/svg">
<path fill-rule="evenodd" clip-rule="evenodd" d="M11.4294 3.45607L8.31645 4.35164C8.06002 4.42541 7.79235 4.27734 7.71857 4.02091C7.6448 3.76449 7.79287 3.49681 8.0493 3.42304L9.68961 2.95113C8.94066 2.63581 8.11747 2.46136 7.25245 2.46136C3.78069 2.46136 0.966267 5.27578 0.966267 8.74755C0.966267 12.2193 3.78069 15.0337 7.25245 15.0337C10.7242 15.0337 13.5386 12.2193 13.5386 8.74755C13.5386 8.48072 13.7549 8.26441 14.0218 8.26441C14.2886 8.26441 14.5049 8.48072 14.5049 8.74755C14.5049 12.753 11.2579 16 7.25245 16C3.24703 16 0 12.753 0 8.74755C0 4.74213 3.24703 1.4951 7.25245 1.4951C8.24414 1.4951 9.19035 1.6944 10.0524 2.05546L9.66354 0.60865C9.59429 0.350967 9.74704 0.0859314 10.0047 0.0166769C10.2624 -0.0525774 10.5274 0.100174 10.5967 0.357857L11.4294 3.45607ZM10.6874 7.12711C10.6874 7.44935 10.5579 7.71788 10.3313 7.9506C10.5579 8.16543 10.6874 8.45186 10.6874 8.7741C10.6874 9.09633 10.5579 9.36487 10.3313 9.59759C10.5579 9.83032 10.6874 10.0988 10.6874 10.4211C10.6874 11.5668 8.98758 12.1576 7.30393 12.1576C5.62028 12.1576 3.92044 11.5489 3.92044 10.4211C3.92044 10.0988 4.04995 9.83032 4.2766 9.59759C4.04995 9.36487 3.92044 9.09633 3.92044 8.7741C3.92044 8.45186 4.04995 8.18333 4.2766 7.9506C4.04995 7.71788 3.92044 7.44935 3.92044 7.12711C3.92044 5.98138 5.62028 5.39061 7.30393 5.39061C8.98758 5.39061 10.6874 5.98138 10.6874 7.12711ZM9.87797 7.12711C9.87797 6.87648 8.97139 6.28571 7.30393 6.28571C5.63647 6.28571 4.72989 6.87648 4.76227 7.12711C4.76227 7.19872 4.8594 7.32403 5.05367 7.44935C5.19937 7.53886 5.37745 7.62837 5.62028 7.71788C5.94406 7.82529 6.34878 7.9148 6.83445 7.9506C6.98015 7.9685 7.15822 7.9685 7.32011 7.9685H7.32012H7.32013C7.48202 7.9685 7.6439 7.9685 7.80579 7.9506C8.29145 7.9148 8.69618 7.82529 9.01996 7.71788C9.26279 7.62837 9.44087 7.53886 9.58657 7.44935C9.78084 7.32403 9.87797 7.19872 9.87797 7.12711ZM4.72989 10.3853C4.72989 10.6359 5.63647 11.2267 7.30393 11.2267C8.97139 11.2267 9.87797 10.6359 9.87797 10.3853C9.87797 10.3137 9.78084 10.1884 9.58657 10.063C8.9552 10.3316 8.12957 10.4748 7.30393 10.4748C6.47829 10.4748 5.65266 10.3316 5.02129 10.063C4.82702 10.1884 4.72989 10.2958 4.72989 10.3853ZM7.7896 9.57969C8.63142 9.50808 9.2466 9.29326 9.57038 9.07843C9.78084 8.95312 9.86178 8.8278 9.86178 8.7562C9.86178 8.68459 9.76465 8.55927 9.57038 8.43396C9.2466 8.57718 8.85807 8.68459 8.45334 8.7562C8.081 8.8099 7.69246 8.84571 7.30393 8.84571C6.9154 8.84571 6.52686 8.8278 6.15452 8.7562C5.74979 8.68459 5.36126 8.57718 5.03748 8.43396C4.84321 8.55927 4.74608 8.66669 4.74608 8.7562C4.74608 8.84571 4.84321 8.95312 5.03748 9.07843C5.36126 9.29326 5.96025 9.52598 6.81826 9.57969C6.96396 9.59759 7.14204 9.59759 7.30393 9.59759C7.46582 9.59759 7.62771 9.59759 7.7896 9.57969Z" fill="#8A9095"/>
</svg>
