<svg width="14" height="16" viewBox="0 0 14 16" fill="none" xmlns="http://www.w3.org/2000/svg">
<path d="M13.4252 2.87817C13.5783 2.50629 13.4908 2.07817 13.2064 1.79379C12.9221 1.50942 12.4939 1.42192 12.1221 1.57504L1.12206 6.07504C0.678308 6.25629 0.428308 6.72504 0.518933 7.19379C0.609558 7.66254 1.02206 8.00004 1.50018 8.00004H7.00018V13.5C7.00018 13.9782 7.33768 14.3875 7.80643 14.4813C8.27518 14.575 8.74393 14.3219 8.92518 13.8782L13.4252 2.87817V2.87817Z" fill="#54585C"/>
</svg>
