<svg width="18" height="16" viewBox="0 0 18 16" fill="none" xmlns="http://www.w3.org/2000/svg">
<line x1="14" y1="8" x2="14" y2="1" stroke="#262626" stroke-width="2" stroke-linecap="round"/>
<circle r="3" transform="matrix(1 0 0 -1 14 12)" stroke="#262626" stroke-width="2"/>
<line x1="4" y1="7" x2="4" y2="15" stroke="#262626" stroke-width="2" stroke-linecap="round"/>
<circle cx="4" cy="4" r="3" stroke="#262626" stroke-width="2"/>
</svg>
